miernictow/Waveform.csv

X,CH1,Start,Increment
Sequence,VOLT,-6.00E-1,1.00E-3
0,-7.00E-1
1,-7.80E-1
2,-7.20E-1
3,-6.60E-1
4,-7.00E-1
5,-6.60E-1
6,-6.80E-1
7,-6.60E-1
8,-6.60E-1
9,-6.80E-1
10,-6.80E-1
11,-6.40E-1
12,-6.40E-1
13,-7.00E-1
14,-6.60E-1
15,-6.00E-1
16,-6.60E-1
17,-6.20E-1
18,-6.60E-1
19,-6.00E-1
20,-6.00E-1
21,-6.20E-1
22,-6.20E-1
23,-5.80E-1
24,-6.20E-1
25,-5.60E-1
26,-6.00E-1
27,-5.60E-1
28,-6.00E-1
29,-5.60E-1
30,-5.80E-1
31,-5.40E-1
32,-5.80E-1
33,-5.20E-1
34,-5.80E-1
35,-5.20E-1
36,-5.20E-1
37,-5.60E-1
38,-5.40E-1
39,-5.20E-1
40,-5.40E-1
41,-5.00E-1
42,-5.40E-1
43,-5.00E-1
44,-5.20E-1
45,-4.80E-1
46,-4.80E-1
47,-5.20E-1
48,-5.20E-1
49,-4.80E-1
50,-5.20E-1
51,-4.60E-1
52,-5.00E-1
53,-4.60E-1
54,-5.00E-1
55,-4.60E-1
56,-4.80E-1
57,-4.40E-1
58,-4.40E-1
59,-4.80E-1
60,-4.40E-1
61,-4.80E-1
62,-4.80E-1
63,-4.20E-1
64,-4.60E-1
65,-4.20E-1
66,-4.20E-1
67,-4.60E-1
68,-4.60E-1
69,-4.00E-1
70,-4.00E-1
71,-4.60E-1
72,-4.20E-1
73,-4.00E-1
74,-4.20E-1
75,-4.00E-1
76,-4.20E-1
77,-3.40E-1
78,-4.20E-1
79,-3.80E-1
80,-4.20E-1
81,-3.80E-1
82,-4.20E-1
83,-3.60E-1
84,-4.20E-1
85,-3.60E-1
86,-4.00E-1
87,-3.60E-1
88,-3.80E-1
89,-3.40E-1
90,-3.80E-1
91,-3.40E-1
92,-3.80E-1
93,-3.40E-1
94,-3.40E-1
95,-3.80E-1
96,-3.60E-1
97,-3.20E-1
98,-3.60E-1
99,-3.00E-1
100,-3.20E-1
101,-3.60E-1
102,-3.20E-1
103,-3.60E-1
104,-3.20E-1
105,-3.60E-1
106,-3.40E-1
107,-3.00E-1
108,-3.20E-1
109,-3.00E-1
110,-3.00E-1
111,-3.40E-1
112,-3.00E-1
113,-3.60E-1
114,-3.00E-1
115,-3.20E-1
116,-3.20E-1
117,-2.80E-1
118,-3.20E-1
119,-2.80E-1
120,-3.00E-1
121,-2.80E-1
122,-3.00E-1
123,-2.80E-1
124,-3.00E-1
125,-2.80E-1
126,-3.20E-1
127,-2.60E-1
128,-2.60E-1
129,-3.00E-1
130,-2.40E-1
131,-3.00E-1
132,-2.60E-1
133,-2.80E-1
134,-2.60E-1
135,-3.00E-1
136,-2.80E-1
137,-2.40E-1
138,-2.40E-1
139,-2.80E-1
140,-2.60E-1
141,-2.40E-1
142,-2.40E-1
143,-2.60E-1
144,-2.60E-1
145,-2.20E-1
146,-2.60E-1
147,-2.00E-1
148,-2.40E-1
149,-2.20E-1
150,-2.20E-1
151,-2.60E-1
152,-2.20E-1
153,-2.60E-1
154,-2.40E-1
155,-2.00E-1
156,-2.00E-1
157,-2.40E-1
158,-2.40E-1
159,-2.00E-1
160,-2.00E-1
161,-2.40E-1
162,-2.00E-1
163,-2.40E-1
164,-2.20E-1
165,-1.80E-1
166,-2.20E-1
167,-1.80E-1
168,-2.20E-1
169,-1.80E-1
170,-1.80E-1
171,-2.20E-1
172,-1.80E-1
173,-2.20E-1
174,-2.00E-1
175,-1.80E-1
176,-1.80E-1
177,-2.20E-1
178,-1.80E-1
179,-2.20E-1
180,-1.60E-1
181,-2.00E-1
182,-1.60E-1
183,-2.00E-1
184,-2.00E-1
185,-1.60E-1
186,-2.00E-1
187,-1.60E-1
188,-1.60E-1
189,-2.00E-1
190,-1.60E-1
191,-2.00E-1
192,-1.80E-1
193,-1.60E-1
194,-1.60E-1
195,-1.80E-1
196,-1.80E-1
197,-1.40E-1
198,-1.80E-1
199,-1.40E-1
200,-1.80E-1
201,-1.40E-1
202,-1.80E-1
203,-1.20E-1
204,-1.20E-1
205,-1.80E-1
206,-1.20E-1
207,-1.80E-1
208,-1.60E-1
209,-1.20E-1
210,-1.80E-1
211,-1.20E-1
212,-1.40E-1
213,-1.80E-1
214,-1.60E-1
215,-1.40E-1
216,-1.60E-1
217,-1.40E-1
218,-1.20E-1
219,-1.80E-1
220,-1.20E-1
221,-1.80E-1
222,-1.60E-1
223,-1.00E-1
224,-1.00E-1
225,-1.60E-1
226,-1.20E-1
227,-1.60E-1
228,-1.00E-1
229,-1.60E-1
230,-1.40E-1
231,-1.20E-1
232,-1.20E-1
233,-1.60E-1
234,-1.00E-1
235,-1.40E-1
236,-1.00E-1
237,-1.60E-1
238,-1.00E-1
239,-1.40E-1
240,-1.40E-1
241,-8.00E-2
242,-1.40E-1
243,-1.00E-1
244,-1.40E-1
245,-1.00E-1
246,-1.40E-1
247,-1.00E-1
248,-1.40E-1
249,-8.00E-2
250,-1.40E-1
251,-8.00E-2
252,-1.40E-1
253,-8.00E-2
254,-1.40E-1
255,-8.00E-2
256,-1.40E-1
257,-8.00E-2
258,-8.00E-2
259,-1.20E-1
260,-8.00E-2
261,-1.40E-1
262,-1.20E-1
263,-8.00E-2
264,-8.00E-2
265,-1.20E-1
266,-8.00E-2
267,-1.20E-1
268,-8.00E-2
269,-1.20E-1
270,-1.00E-1
271,-4.00E-2
272,-8.00E-2
273,-1.20E-1
274,-8.00E-2
275,-1.20E-1
276,-1.20E-1
277,-6.00E-2
278,-8.00E-2
279,-1.00E-1
280,-1.00E-1
281,-6.00E-2
282,-1.00E-1
283,-6.00E-2
284,-1.00E-1
285,-6.00E-2
286,-1.20E-1
287,-6.00E-2
288,-1.00E-1
289,-6.00E-2
290,-1.00E-1
291,-8.00E-2
292,-1.00E-1
293,-6.00E-2
294,-1.20E-1
295,-6.00E-2
296,-1.00E-1
297,-6.00E-2
298,-1.00E-1
299,-6.00E-2
300,-6.00E-2
301,-1.00E-1
302,-1.00E-1
303,-6.00E-2
304,-1.00E-1
305,-6.00E-2
306,-6.00E-2
307,-1.00E-1
308,-6.00E-2
309,-1.00E-1
310,-1.00E-1
311,-6.00E-2
312,-6.00E-2
313,-1.00E-1
314,-6.00E-2
315,-1.00E-1
316,-6.00E-2
317,-1.00E-1
318,-6.00E-2
319,-1.00E-1
320,-1.00E-1
321,-4.00E-2
322,-4.00E-2
323,-1.00E-1
324,-4.00E-2
325,-1.00E-1
326,-8.00E-2
327,-4.00E-2
328,-1.00E-1
329,-4.00E-2
330,-8.00E-2
331,-4.00E-2
332,-8.00E-2
333,-4.00E-2
334,-6.00E-2
335,-8.00E-2
336,-8.00E-2
337,-4.00E-2
338,-4.00E-2
339,-8.00E-2
340,-4.00E-2
341,-8.00E-2
342,-1.00E-1
343,-4.00E-2
344,-8.00E-2
345,-4.00E-2
346,-4.00E-2
347,-8.00E-2
348,-8.00E-2
349,-4.00E-2
350,-8.00E-2
351,-4.00E-2
352,-4.00E-2
353,-8.00E-2
354,-8.00E-2
355,-4.00E-2
356,-8.00E-2
357,-4.00E-2
358,-2.00E-2
359,-8.00E-2
360,-8.00E-2
361,-2.00E-2
362,-1.00E-1
363,1.96E+0
364,1.96E+0
365,1.92E+0
366,1.96E+0
367,1.88E+0
368,1.90E+0
369,1.86E+0
370,1.88E+0
371,1.82E+0
372,1.86E+0
373,1.78E+0
374,1.82E+0
375,1.78E+0
376,1.80E+0
377,1.74E+0
378,1.78E+0
379,1.72E+0
380,1.74E+0
381,1.70E+0
382,1.72E+0
383,1.68E+0
384,1.70E+0
385,1.64E+0
386,1.60E+0
387,1.68E+0
388,1.64E+0
389,1.60E+0
390,1.62E+0
391,1.56E+0
392,1.58E+0
393,1.54E+0
394,1.58E+0
395,1.52E+0
396,1.54E+0
397,1.50E+0
398,1.52E+0
399,1.48E+0
400,1.50E+0
401,1.46E+0
402,1.48E+0
403,1.44E+0
404,1.46E+0
405,1.40E+0
406,1.44E+0
407,1.40E+0
408,1.42E+0
409,1.36E+0
410,1.38E+0
411,1.34E+0
412,1.38E+0
413,1.32E+0
414,1.38E+0
415,1.30E+0
416,1.34E+0
417,1.28E+0
418,1.32E+0
419,1.26E+0
420,1.28E+0
421,1.24E+0
422,1.28E+0
423,1.22E+0
424,1.28E+0
425,1.22E+0
426,1.24E+0
427,1.18E+0
428,1.18E+0
429,1.22E+0
430,1.22E+0
431,1.16E+0
432,1.20E+0
433,1.14E+0
434,1.16E+0
435,1.10E+0
436,1.16E+0
437,1.12E+0
438,1.12E+0
439,1.04E+0
440,1.10E+0
441,1.08E+0
442,1.08E+0
443,1.04E+0
444,1.10E+0
445,1.04E+0
446,1.06E+0
447,1.04E+0
448,1.06E+0
449,1.00E+0
450,1.04E+0
451,1.00E+0
452,1.02E+0
453,9.80E-1
454,1.00E+0
455,9.60E-1
456,9.80E-1
457,9.40E-1
458,9.40E-1
459,9.60E-1
460,9.60E-1
461,9.20E-1
462,9.40E-1
463,9.20E-1
464,9.40E-1
465,8.80E-1
466,9.20E-1
467,8.80E-1
468,9.00E-1
469,8.60E-1
470,9.00E-1
471,8.40E-1
472,8.80E-1
473,8.40E-1
474,8.60E-1
475,8.20E-1
476,8.60E-1
477,8.20E-1
478,8.60E-1
479,8.00E-1
480,8.00E-1
481,8.40E-1
482,7.80E-1
483,8.20E-1
484,7.60E-1
485,8.00E-1
486,8.00E-1
487,7.40E-1
488,8.00E-1
489,7.40E-1
490,7.40E-1
491,7.80E-1
492,7.60E-1
493,7.20E-1
494,7.20E-1
495,7.60E-1
496,7.40E-1
497,7.00E-1
498,7.20E-1
499,6.80E-1
500,7.20E-1
501,6.80E-1
502,7.00E-1
503,6.60E-1
504,7.00E-1
505,6.40E-1
506,6.40E-1
507,6.80E-1
508,6.80E-1
509,6.40E-1
510,6.40E-1
511,6.60E-1
512,6.60E-1
513,6.00E-1
514,6.40E-1
515,6.20E-1
516,6.40E-1
517,6.20E-1
518,6.20E-1
519,6.00E-1
520,6.20E-1
521,5.60E-1
522,6.20E-1
523,5.80E-1
524,6.00E-1
525,5.60E-1
526,5.80E-1
527,5.60E-1
528,5.80E-1
529,5.20E-1
530,5.80E-1
531,5.20E-1
532,5.60E-1
533,5.20E-1
534,5.60E-1
535,5.20E-1
536,5.20E-1
537,5.40E-1
538,5.20E-1
539,5.60E-1
540,5.40E-1
541,4.80E-1
542,5.40E-1
543,4.60E-1
544,5.20E-1
545,4.80E-1
546,4.60E-1
547,5.20E-1
548,5.00E-1
549,4.60E-1
550,5.00E-1
551,4.60E-1
552,4.80E-1
553,4.40E-1
554,4.80E-1
555,4.40E-1
556,4.80E-1
557,4.20E-1
558,4.60E-1
559,4.20E-1
560,4.60E-1
561,4.20E-1
562,4.20E-1
563,4.60E-1
564,4.00E-1
565,4.60E-1
566,4.40E-1
567,4.20E-1
568,4.00E-1
569,4.40E-1
570,4.40E-1
571,4.00E-1
572,4.00E-1
573,4.40E-1
574,4.20E-1
575,3.80E-1
576,4.20E-1
577,3.60E-1
578,3.60E-1
579,4.20E-1
580,4.00E-1
581,3.40E-1
582,3.60E-1
583,4.00E-1
584,4.00E-1
585,3.60E-1
586,4.00E-1
587,3.40E-1
588,3.40E-1
589,3.80E-1
590,3.20E-1
591,3.80E-1
592,3.60E-1
593,3.20E-1
594,3.60E-1
595,3.20E-1
596,3.20E-1
597,3.60E-1
598,3.20E-1
599,3.60E-1
600,2.60E-1
601,3.60E-1
602,3.40E-1
603,3.20E-1
604,3.40E-1
605,3.00E-1
606,3.00E-1
607,3.40E-1
608,3.40E-1
609,3.00E-1
610,3.00E-1
611,3.40E-1
612,3.20E-1
613,2.80E-1
614,3.20E-1
615,2.80E-1
616,2.80E-1
617,3.20E-1
618,2.80E-1
619,3.20E-1
620,3.20E-1
621,2.60E-1
622,2.80E-1
623,2.60E-1
624,2.60E-1
625,2.80E-1
626,2.80E-1
627,2.60E-1
628,2.60E-1
629,3.00E-1
630,2.40E-1
631,3.00E-1
632,2.40E-1
633,3.00E-1
634,2.40E-1
635,2.80E-1
636,2.80E-1
637,2.40E-1
638,2.40E-1
639,2.60E-1
640,2.60E-1
641,2.20E-1
642,2.40E-1
643,2.20E-1
644,2.40E-1
645,2.20E-1
646,2.20E-1
647,2.60E-1
648,2.40E-1
649,2.20E-1
650,2.00E-1
651,2.60E-1
652,2.20E-1
653,2.40E-1
654,2.40E-1
655,2.00E-1
656,2.20E-1
657,2.00E-1
658,2.00E-1
659,2.40E-1
660,2.20E-1
661,2.00E-1
662,2.00E-1
663,2.20E-1
664,2.00E-1
665,2.20E-1
666,2.20E-1
667,1.80E-1
668,2.20E-1
669,1.80E-1
670,2.20E-1
671,1.80E-1
672,2.20E-1
673,1.80E-1
674,2.00E-1
675,1.80E-1
676,1.80E-1
677,2.20E-1
678,2.00E-1
679,1.80E-1
680,1.60E-1
681,2.00E-1
682,2.00E-1
683,1.60E-1
684,2.00E-1
685,1.40E-1
686,1.60E-1
687,2.00E-1
688,1.80E-1
689,1.60E-1
690,1.40E-1
691,1.80E-1
692,1.40E-1
693,1.80E-1
694,1.80E-1
695,1.40E-1
696,1.40E-1
697,1.80E-1
698,1.80E-1
699,1.40E-1
700,1.40E-1
701,1.80E-1
702,1.40E-1
703,1.80E-1
704,1.20E-1
705,1.80E-1
706,1.60E-1
707,1.20E-1
708,1.60E-1
709,1.20E-1
710,1.60E-1
711,1.20E-1
712,1.60E-1
713,1.40E-1
714,1.40E-1
715,1.60E-1
716,1.00E-1
717,1.60E-1
718,1.00E-1
719,1.60E-1
720,1.60E-1
721,1.20E-1
722,1.20E-1
723,1.60E-1
724,1.40E-1
725,8.00E-2
726,1.00E-1
727,1.60E-1
728,1.00E-1
729,1.40E-1
730,1.00E-1
731,1.40E-1
732,1.40E-1
733,8.00E-2
734,1.20E-1
735,1.00E-1
736,1.00E-1
737,1.40E-1
738,1.00E-1
739,1.20E-1
740,1.40E-1
741,8.00E-2
742,1.20E-1
743,8.00E-2
744,1.40E-1
745,8.00E-2
746,1.20E-1
747,8.00E-2
748,1.00E-1
749,1.20E-1
750,1.20E-1
751,1.00E-1
752,1.20E-1
753,8.00E-2
754,1.20E-1
755,8.00E-2
756,8.00E-2
757,1.20E-1
758,8.00E-2
759,1.20E-1
760,1.20E-1
761,8.00E-2
762,1.20E-1
763,8.00E-2
764,1.20E-1
765,8.00E-2
766,1.20E-1
767,8.00E-2
768,1.20E-1
769,8.00E-2
770,1.00E-1
771,8.00E-2
772,1.20E-1
773,6.00E-2
774,8.00E-2
775,1.20E-1
776,6.00E-2
777,1.00E-1
778,6.00E-2
779,1.20E-1
780,6.00E-2
781,1.00E-1
782,6.00E-2
783,1.20E-1
784,6.00E-2
785,1.00E-1
786,6.00E-2
787,1.00E-1
788,1.00E-1
789,6.00E-2
790,6.00E-2
791,1.00E-1
792,8.00E-2
793,6.00E-2
794,1.00E-1
795,6.00E-2
796,4.00E-2
797,1.00E-1
798,1.00E-1
799,6.00E-2
800,8.00E-2
801,4.00E-2
802,4.00E-2
803,1.00E-1
804,4.00E-2
805,1.00E-1
806,6.00E-2
807,1.00E-1
808,1.00E-1
809,4.00E-2
810,8.00E-2
811,4.00E-2
812,8.00E-2
813,4.00E-2
814,1.00E-1
815,4.00E-2
816,8.00E-2
817,4.00E-2
818,4.00E-2
819,8.00E-2
820,8.00E-2
821,4.00E-2
822,8.00E-2
823,4.00E-2
824,8.00E-2
825,4.00E-2
826,8.00E-2
827,2.00E-2
828,8.00E-2
829,2.00E-2
830,4.00E-2
831,8.00E-2
832,2.00E-2
833,8.00E-2
834,8.00E-2
835,2.00E-2
836,4.00E-2
837,8.00E-2
838,4.00E-2
839,6.00E-2
840,4.00E-2
841,8.00E-2
842,4.00E-2
843,8.00E-2
844,8.00E-2
845,2.00E-2
846,8.00E-2
847,2.00E-2
848,2.00E-2
849,6.00E-2
850,6.00E-2
851,2.00E-2
852,6.00E-2
853,2.00E-2
854,6.00E-2
855,4.00E-2
856,4.00E-2
857,6.00E-2
858,2.00E-2
859,6.00E-2
860,2.00E-2
861,8.00E-2
862,6.00E-2
863,-1.98E+0
864,-1.98E+0
865,-1.94E+0
866,-1.96E+0
867,-1.90E+0
868,-1.94E+0
869,-1.86E+0
870,-1.88E+0
871,-1.84E+0
872,-1.86E+0
873,-1.82E+0
874,-1.82E+0
875,-1.78E+0
876,-1.80E+0
877,-1.76E+0
878,-1.78E+0
879,-1.74E+0
880,-1.76E+0
881,-1.70E+0
882,-1.72E+0
883,-1.68E+0
884,-1.66E+0
885,-1.70E+0
886,-1.68E+0
887,-1.64E+0
888,-1.62E+0
889,-1.66E+0
890,-1.62E+0
891,-1.58E+0
892,-1.60E+0
893,-1.56E+0
894,-1.58E+0
895,-1.54E+0
896,-1.52E+0
897,-1.56E+0
898,-1.52E+0
899,-1.48E+0
900,-1.52E+0
901,-1.46E+0
902,-1.50E+0
903,-1.44E+0
904,-1.46E+0
905,-1.42E+0
906,-1.44E+0
907,-1.40E+0
908,-1.42E+0
909,-1.38E+0
910,-1.36E+0
911,-1.40E+0
912,-1.38E+0
913,-1.34E+0
914,-1.32E+0
915,-1.36E+0
916,-1.34E+0
917,-1.28E+0
918,-1.34E+0
919,-1.28E+0
920,-1.32E+0
921,-1.26E+0
922,-1.28E+0
923,-1.24E+0
924,-1.26E+0
925,-1.22E+0
926,-1.24E+0
927,-1.20E+0
928,-1.22E+0
929,-1.18E+0
930,-1.16E+0
931,-1.24E+0
932,-1.20E+0
933,-1.16E+0
934,-1.16E+0
935,-1.14E+0
936,-1.16E+0
937,-1.12E+0
938,-1.14E+0
939,-1.10E+0
940,-1.14E+0
941,-1.08E+0
942,-1.10E+0
943,-1.06E+0
944,-1.04E+0
945,-1.10E+0
946,-1.08E+0
947,-1.02E+0
948,-1.02E+0
949,-1.06E+0
950,-1.04E+0
951,-1.00E+0
952,-1.04E+0
953,-9.80E-1
954,-1.02E+0
955,-9.60E-1
956,-1.00E+0
957,-9.60E-1
958,-9.80E-1
959,-9.20E-1
960,-9.80E-1
961,-9.20E-1
962,-9.60E-1
963,-9.20E-1
964,-9.40E-1
965,-9.00E-1
966,-9.40E-1
967,-8.80E-1
968,-9.20E-1
969,-8.80E-1
970,-8.60E-1
971,-9.00E-1
972,-9.00E-1
973,-8.40E-1
974,-8.80E-1
975,-8.20E-1
976,-8.60E-1
977,-8.20E-1
978,-8.40E-1
979,-8.00E-1
980,-8.00E-1
981,-8.40E-1
982,-8.40E-1
983,-7.80E-1
984,-7.80E-1
985,-8.20E-1
986,-8.20E-1
987,-7.60E-1
988,-7.80E-1
989,-7.60E-1
990,-7.80E-1
991,-7.60E-1
992,-7.60E-1
993,-7.20E-1
994,-7.60E-1
995,-7.20E-1
996,-7.40E-1
997,-7.20E-1
998,-7.00E-1
999,-7.40E-1
1000,-7.20E-1
1001,-7.00E-1
1002,-7.20E-1
1003,-6.60E-1
1004,-6.60E-1
1005,-7.00E-1
1006,-6.80E-1
1007,-6.40E-1
1008,-6.80E-1
1009,-6.40E-1
1010,-6.80E-1
1011,-6.40E-1
1012,-6.40E-1
1013,-6.60E-1
1014,-6.80E-1
1015,-6.00E-1
1016,-6.00E-1
1017,-6.40E-1
1018,-6.20E-1
1019,-6.00E-1
1020,-6.20E-1
1021,-5.80E-1
1022,-6.20E-1
1023,-5.80E-1
1024,-6.00E-1
1025,-5.60E-1
1026,-6.00E-1
1027,-5.60E-1
1028,-5.60E-1
1029,-6.00E-1
1030,-5.80E-1
1031,-5.60E-1
1032,-5.80E-1
1033,-5.40E-1
1034,-5.60E-1
1035,-5.20E-1
1036,-5.60E-1
1037,-5.20E-1
1038,-5.20E-1
1039,-5.60E-1
1040,-5.40E-1
1041,-4.80E-1
1042,-5.40E-1
1043,-5.00E-1
1044,-5.00E-1
1045,-5.40E-1
1046,-4.80E-1
1047,-5.20E-1
1048,-5.20E-1
1049,-4.80E-1
1050,-5.20E-1
1051,-4.60E-1
1052,-4.60E-1
1053,-5.00E-1
1054,-4.80E-1
1055,-4.40E-1
1056,-5.00E-1
1057,-4.40E-1
1058,-4.80E-1
1059,-4.40E-1
1060,-4.20E-1
1061,-4.80E-1
1062,-4.60E-1
1063,-4.20E-1
1064,-4.20E-1
1065,-4.60E-1
1066,-4.20E-1
1067,-4.60E-1
1068,-4.60E-1
1069,-4.00E-1
1070,-4.40E-1
1071,-4.00E-1
1072,-4.00E-1
1073,-4.40E-1
1074,-4.20E-1
1075,-4.00E-1
1076,-3.80E-1
1077,-4.20E-1
1078,-4.20E-1
1079,-3.80E-1
1080,-4.00E-1
1081,-3.80E-1
1082,-4.20E-1
1083,-3.60E-1
1084,-4.00E-1
1085,-3.60E-1
1086,-3.60E-1
1087,-4.20E-1
1088,-3.60E-1
1089,-3.80E-1
1090,-3.80E-1
1091,-3.40E-1
1092,-3.80E-1
1093,-3.40E-1
1094,-3.40E-1
1095,-3.80E-1
1096,-3.40E-1
1097,-3.60E-1
1098,-3.60E-1
1099,-3.20E-1
1100,-3.20E-1
1101,-3.60E-1
1102,-3.20E-1
1103,-3.40E-1
1104,-3.40E-1
1105,-3.00E-1
1106,-3.00E-1
1107,-3.40E-1
1108,-3.00E-1
1109,-3.40E-1
1110,-3.00E-1
1111,-3.60E-1
1112,-3.00E-1
1113,-3.40E-1
1114,-3.00E-1
1115,-3.20E-1
1116,-3.20E-1
1117,-2.80E-1
1118,-2.80E-1
1119,-3.20E-1
1120,-2.80E-1
1121,-3.20E-1
1122,-2.80E-1
1123,-3.00E-1
1124,-2.60E-1
1125,-3.20E-1
1126,-2.60E-1
1127,-3.20E-1
1128,-3.00E-1
1129,-2.60E-1
1130,-2.80E-1
1131,-2.60E-1
1132,-2.60E-1
1133,-2.80E-1
1134,-2.80E-1
1135,-2.60E-1
1136,-2.80E-1
1137,-2.40E-1
1138,-2.60E-1
1139,-2.40E-1
1140,-2.60E-1
1141,-2.40E-1
1142,-2.80E-1
1143,-2.40E-1
1144,-2.60E-1
1145,-2.20E-1
1146,-2.60E-1
1147,-2.20E-1
1148,-2.60E-1
1149,-2.00E-1
1150,-2.00E-1
1151,-2.60E-1
1152,-2.40E-1
1153,-2.00E-1
1154,-2.40E-1
1155,-2.20E-1
1156,-2.40E-1
1157,-1.80E-1
1158,-2.40E-1
1159,-1.80E-1
1160,-2.00E-1
1161,-2.40E-1
1162,-2.40E-1
1163,-2.00E-1
1164,-2.00E-1
1165,-2.60E-1
1166,-2.20E-1
1167,-2.00E-1
1168,-1.80E-1
1169,-2.40E-1
1170,-1.80E-1
1171,-2.20E-1
1172,-2.00E-1
1173,-2.20E-1
1174,-2.20E-1
1175,-1.60E-1
1176,-2.00E-1
1177,-1.80E-1
1178,-2.00E-1
1179,-1.80E-1
1180,-2.00E-1
1181,-1.40E-1
1182,-2.00E-1
1183,-1.60E-1
1184,-1.60E-1
1185,-2.00E-1
1186,-2.20E-1
1187,-1.60E-1
1188,-1.60E-1
1189,-2.00E-1
1190,-2.00E-1
1191,-1.60E-1
1192,-1.60E-1
1193,-2.00E-1
1194,-1.40E-1
1195,-2.00E-1
1196,-1.80E-1
1197,-1.60E-1
1198,-1.80E-1
1199,-1.40E-1
